{
  "news": [
    {
      "title": "Selection of Canteens",
      "title_de": "Auswahl der Kantinen",
      "date": "21.10.2019",
      "category": "CATEGORY_TRICKS",
      "text": "In the overview of all canteens, there is a selection menu in the top left corner which can be used to determine which canteens are displayed.",
      "text_de": "Bei der Übersicht aller Kantinen existiert oben links ein Auswahlmenü über welches die angezeigten Kantinen bestimmt werden können."
    },
    {
      "title": "Vegetarian Meals",
      "title_de": "Vegetarisches Essen",
      "date": "21.10.2019",
      "category": "CATEGORY_TRICKS",
      "text": "In the options you can now select that you only want vegetarian or vegan food to be displayed in the canteen view.",
      "text_de": "In den Optionen kannst Du jetzt auswählen, dass Du nur vegetarisches bzw. veganes Essen in der Kantinenansicht angezeigt bekommen möchtest."
    },
    {
      "title": "Schedule",
      "title_de": "Stundenplan",
      "date": "18.11.2018",
      "category": "CATEGORY_TRICKS",
      "text": "The schedule view still has some hidden features. So there is a shortcut to switch to the next or previous week. Simply double-click on each page in the weekly view.\n\nYour tutorials and courses are only visible if you have chosen and selected them in the KVV.",
      "text_de": "Die Stundenplan-Ansicht bietet noch einige versteckte Funktionen. So gibt es einen Shortcut, um auf die nächste bzw. vorherige Woche zu wechseln. Hierzu einfach doppelt auf der jeweiligen Seite in der Wochenansicht klicken.\n\nDeine Tutorien und Kurse sind nur einsehbar, wenn Du diese im KVV gewählt und ausgewählt hast."
    },
    {
      "title": "User-Specific Price Categories",
      "title_de": "Spezifische Preisgruppen für Mensen",
      "date": "18.11.2018",
      "category": "CATEGORY_TRICKS",
      "text": "In the app settings you can choose your price group. Only the prices that are relevant for you will be displayed.",
      "text_de": "In den App-Einstellungen kannst Du Deine Preisgruppe wählen. So werden nur die für Dich relevanten Preise angezeigt."
    },
    {
      "title": "Data Refreshing",
      "title_de": "Aktualisierung der Daten",
      "date": "18.11.2018",
      "category": "CATEGORY_UPDATE",
      "text": "Currently, the data is not automatically synchronized with the KVV. You can trigger a manual sync by simply dragging the view down. An exception is the timetable. Here you can update with the three points in the top right.",
      "text_de": "Derzeit werden die Daten nicht automatisch mit dem KVV synchronisiert. Eine manuelle Synchronisierung kannst Du auslösen, indem Du die Ansicht einfach nach unten ziehst. Eine Ausnahme bildet der Stundenplan. Hier kannst Du über die drei Punkte oben rechts aktualisieren."
    },
    {
      "title": "Resources",
      "title_de": "Ressourcen",
      "date": "18.11.2018",
      "category": "CATEGORY_TRICKS",
      "text": "The downloaded resources are saved on your smartphone under \".../Download/FU-<course name>/<file name>\".\n\nResources that have already been downloaded can be opened or reloaded via the download dialog. A reload overwrites the old file.",
      "text_de": "Die heruntergeladenen Ressourcen werden auf Deinem Smartphone unter „…/Download/FU-<Kursname>/< Dateiname>“ gespeichert.\n\nRessourcen, die bereits heruntergeladen wurden, können über den Download-Dialog geöffnet oder erneut heruntergeladen werden. Beim erneuten Herunterladen wird die alte Datei überschrieben."
    }
  ]
}